APLA Database
…
            19/11/2020

Upload Packages and Data

## # A tibble: 19,623 x 4
##    Q1        Q2    Question Liberalisation_Score
##    <fct>     <fct> <fct>                   <dbl>
##  1 Argentina 1990  Q54.2_1                     0
##  2 Argentina 1990  LA3.2_1                     1
##  3 Argentina 1990  LA7.2_1                     1
##  4 Argentina 1990  LA41.2_1                    0
##  5 Argentina 1990  LA43.2_1                    1
##  6 Argentina 1990  LA53.2_1                    0
##  7 Argentina 1990  LA59.2_1                    1
##  8 Argentina 1991  Q54.2_1                     0
##  9 Argentina 1991  LA3.2_1                     1
## 10 Argentina 1991  LA7.2_1                     1
## # ... with 19,613 more rows
…
