APLA_Replication_Code • APLA
…
  Reference

    Articles

      APLA_Replication_Code

      APLA_Replication_Code

                        Omar HG

            27/06/2020

      APLA_Replication_Code.Rmd

## # A tibble: 551 x 262
##    Q1    Q2    `Q5#1_1` `Q5#2_1` `Q5#3_1_1` `Q5#4_1_1` `Q7#1_1` `Q7#2_1`
##    <chr> <chr> <chr>    <chr>    <chr>      <chr>      <chr>    <chr>   
##  1 Whic… Whic… Is the … Is the … Is the co… Is the co… Has the… Has the…
##  2 Arge… 1990  Yes      0        https://w… Signed on… No       0       
##  3 Arge… 1991  Yes      0        https://w… Signed on… No       0       
##  4 Arge… 1992  Yes      0        https://w… Signed on… No       0       
##  5 Arge… 1993  Yes      0        https://w… Signed on… No       0       
##  6 Arge… 1994  Yes      0        https://w… Signed on… No       0       
##  7 Arge… 1995  Yes      0        https://w… Signed on… No       0       
##  8 Arge… 1996  Yes      0        https://w… Signed on… No       0       
##  9 Arge… 1997  Yes      0        https://w… Signed on… No       0       
## 10 Arge… 1998  Yes      0        https://w… Signed on… No       0       
## # … with 541 more rows, and 254 more variables: `Q7#3_1_1` <chr>,
## #   `Q7#4_1_1` <chr>, `Q9#1_1` <chr>, `Q9#2_1` <chr>, `Q9#3_1_1` <chr>,
## #   `Q9#4_1_1` <chr>, `Q11#1_1` <chr>, `Q11#2_1` <chr>, `Q11#3_1_1` <chr>,
## #   `Q11#4_1_1` <chr>, `Q13#1_1` <chr>, `Q13#2_1` <chr>, `Q13#3_1_1` <chr>,
## #   `Q13#4_1_1` <chr>, `Q15#1_1` <chr>, `Q15#2_1` <chr>, `Q15#3_1_1` <chr>,
## #   `Q15#4_1_1` <chr>, `Q17#1_1` <chr>, `Q17#2_1` <chr>, `Q17#3_1_1` <chr>,
## #   `Q17#4_1_1` <chr>, `Q19#1_1` <chr>, `Q19#2_1` <chr>, `Q19#3_1_1` <chr>,
## #   `Q19#4_1_1` <chr>, `Q200#1_1` <chr>, `Q200#2_1` <chr>, `Q200#3_1_1` <chr>,
## #   `Q200#4_1_1` <chr>, `Q202#1_1` <chr>, `Q202#2_1` <chr>, `Q202#3_1_1` <chr>,
…
## #   `Q133#4_1_1` <chr>, `Q274#1_1` <chr>, `Q274#2_1` <chr>, `Q274#3_1_1` <chr>,
## #   `Q274#4_1_1` <chr>, `Q188#1_1` <chr>, `Q188#2_1` <chr>, `Q188#3_1_1` <chr>,
## #   `Q188#4_1_1` <chr>, `Q170#1_1` <chr>, `Q170#2_1` <chr>, `Q170#3_1_1` <chr>,
## #   `Q170#4_1_1` <chr>, `Q172#1_1` <chr>, `Q172#2_1` <chr>, `Q172#3_1_1` <chr>,
## #   `Q172#4_1_1` <chr>, `Q174#1_1` <chr>, `Q174#2_1` <chr>, `Q174#3_1_1` <chr>,
## #   `Q174#4_1_1` <chr>, `Q180#1_1` <chr>, `Q180#2_1` <chr>, `Q180#3_1_1` <chr>,
## #   `Q180#4_1_1` <chr>, `Q184#1_1` <chr>, `Q184#2_1` <chr>, `Q184#3_1_1` <chr>,
## #   `Q184#4_1_1` <chr>, `Q101#1_1` <chr>, `Q101#2_1` <chr>, `Q101#3_1_1` <chr>,
## #   `Q101#4_1_1` <chr>, `Q103#1_1` <chr>, `Q103#2_1` <chr>, `Q103#3_1_1` <chr>,
## #   `Q103#4_1_1` <chr>, `Q107#1_1` <chr>, `Q107#2_1` <chr>, `Q107#3_1_1` <chr>,
## #   `Q107#4_1_1` <chr>, `Q113#1_1` <chr>, `Q113#2_1` <chr>, `Q113#3_1_1` <chr>,
## #   `Q113#4_1_1` <chr>, `Q109#1_1` <chr>, `Q109#2_1` <chr>, `Q109#3_1_1` <chr>,
## #   `Q109#4_1_1` <chr>, `Q253#1_1` <chr>, `Q253#2_1` <chr>, …

## # A tibble: 19,623 x 4
##    Q1        Q2    Question Liberalisation_Score
##    <chr>     <chr> <fct>                   <dbl>
##  1 Argentina 1990  Q54#2_1                     0
##  2 Argentina 1990  LA3#2_1                     1
##  3 Argentina 1990  LA7#2_1                     1
##  4 Argentina 1990  LA41#2_1                    0
##  5 Argentina 1990  LA43#2_1                    1
##  6 Argentina 1990  LA53#2_1                    0
##  7 Argentina 1990  LA59#2_1                    1
##  8 Argentina 1991  Q54#2_1                     0
##  9 Argentina 1991  LA3#2_1                     1
## 10 Argentina 1991  LA7#2_1                     1
## # … with 19,613 more rows
…
